{
  "swagger": "2.0",
  "info": {
    "title": "middeware-sample.proto",
    "version": "version not set"
  },
  "schemes": [
    "http",
    "https"
  ],
  "consumes": [
    "application/json"
  ],
  "produces": [
    "application/json"
  ],
  "paths": {
    "/v2/bo/samle/get:search": {
      "get": {
        "operationId": "SampleFunc",
        "responses": {
          "200": {
            "description": "",
            "schema": {
              "$ref": "#/definitions/sampleSampleResponse"
            }
          }
        },
        "parameters": [
          {
            "name": "id",
            "in": "query",
            "required": false,
            "type": "integer",
            "format": "int32"
          }
        ],
        "tags": [
          "SampleAPI"
        ]
      }
    }
  },
  "definitions": {
    "sampleSampleResponse": {
      "type": "object",
      "properties": {
        "id": {
          "type": "integer",
          "format": "int32"
        }
      }
    }
  }
}
